Dec  5 03:42:19 example syslogd 1.5.0#5: restart.
Dec  5 03:43:01 example /USR/SBIN/CRON[26348]: (Debian-exim) CMD ([ -x /usr/sbin/exim_rewrite_scan ] && /usr/sbin/exim_rewrite_scan  /etc/exim4/exim4.conf)
Dec  5 03:43:01 example /USR/SBIN/CRON[26349]: (root) CMD ([ -x /usr/sbin/sympl-all-crontabs ] && /usr/sbin/sympl-all-crontabs)
Dec  5 03:44:01 example /USR/SBIN/CRON[26442]: (root) CMD ([ -x /usr/sbin/sympl-all-crontabs ] && /usr/sbin/sympl-all-crontabs)
Dec  5 03:44:01 example /USR/SBIN/CRON[26443]: (Debian-exim) CMD ([ -x /usr/sbin/exim_rewrite_scan ] && /usr/sbin/exim_rewrite_scan  /etc/exim4/exim4.conf)
Dec  5 03:44:01 example /USR/SBIN/CRON[26441]: (root) CMD ( [ -x /usr/sbin/sympl-monit ] &&  /usr/sbin/sympl-monit -m -d /etc/sympl/monit.d)
Dec  5 03:44:01 example /USR/SBIN/CRON[26444]: (root) CMD ([ -x /usr/bin/firewall-blacklist ] && /usr/bin/firewall-blacklist)
Dec  5 03:44:02 example dovecot: imap-login: Login: user=<gsl@306th.org.uk>, method=PLAIN, rip=::ffff:31.94.124.185, lip=::ffff:80.68.93.79, TLS
Dec  5 03:44:02 example dovecot: pop3-login: Aborted login (0 authentication attempts): rip=::ffff:127.0.0.1, lip=::ffff:127.0.0.1, secured
Dec  5 03:44:03 example dovecot: imap-login: Aborted login (0 authentication attempts): rip=::ffff:127.0.0.1, lip=::ffff:127.0.0.1, secured
Dec  5 03:44:03 example pure-ftpd-wrapper[26483]: connect from 127.0.0.1 (127.0.0.1)
Dec  5 03:44:04 example pure-ftpd: (?@localhost) [INFO] New connection from localhost
Dec  5 03:44:04 example pure-ftpd: (?@localhost) [INFO] Logout.
Dec  5 03:44:04 example spamd[5443]: spamd: connection from localhost [127.0.0.1] at port 56800 
Dec  5 03:44:04 example spamd[1876]: prefork: child states: II 
Dec  5 03:44:04 example sympl-monit[26447]: 11/11 tests passed on first attempt.
Dec  5 03:45:02 example /USR/SBIN/CRON[27325]: (user) CMD (/home/user/bin/do-mailing-list-updates /srv/user.org.uk/mailboxes/mailing-list-updates/Maildir/.Processed )
Dec  5 03:45:02 example /USR/SBIN/CRON[27327]: (root) CMD ([ -x /usr/bin/firewall-blacklist ] && /usr/bin/firewall-blacklist)
Dec  5 03:45:02 example /USR/SBIN/CRON[27326]: (Debian-exim) CMD ([ -x /usr/sbin/exim_rewrite_scan ] && /usr/sbin/exim_rewrite_scan  /etc/exim4/exim4.conf)
Dec  5 03:45:02 example /USR/SBIN/CRON[27328]: (root) CMD ([ -x /usr/sbin/sympl-all-crontabs ] && /usr/sbin/sympl-all-crontabs)
